sim/tb_hass_top.vcd
$date
	Wed Jun 24 20:40:09 2026
$end
$version
	Icarus Verilog
$end
$timescale
	1ps
$end
$scope module tb_hass_top $end
$var wire 1 ! phy0_ref_clk $end
$var wire 1 " phy0_tx_en $end
$var wire 1 # phy0_txd0 $end
$var wire 1 $ phy0_txd1 $end
$var wire 1 % phy1_ref_clk $end
$var wire 1 & phy1_tx_en $end
$var wire 1 ' phy1_txd0 $end
$var wire 1 ( phy1_txd1 $end
$var wire 1 ) ws2812_din $end
$var wire 1 * sram_we_n $end
$var wire 1 + sram_oe_n $end
$var wire 16 , sram_data [15:0] $end
$var wire 1 - sram_ce_n $end
$var wire 18 . sram_addr [17:0] $end
$var reg 1 / clk_125mhz $end
$var reg 1 0 mb_axi_clk $end
$var reg 1 1 mb_axi_rst_n $end
$var reg 1 2 phy0_crs_dv $end
$var reg 1 3 phy0_rx_er $end
$var reg 1 4 phy0_rxd0 $end
$var reg 1 5 phy0_rxd1 $end
$var reg 1 6 phy1_crs_dv $end
$var reg 1 7 phy1_rx_er $end
$var reg 1 8 phy1_rxd0 $end
$var reg 1 9 phy1_rxd1 $end
$var reg 32 : prng_state [31:0] $end
$var reg 1 ; rst_btn $end
$var reg 8 < sim_rx_byte [7:0] $end
$var reg 1 = sim_rx_byte_valid $end
$var reg 1 > sim_rx_frame_end $end
$var reg 1 ? sim_rx_frame_start $end
$var integer 32 @ i [31:0] $end
$var integer 32 A j [31:0] $end
$var integer 32 B k [31:0] $end
$scope function next_rand_byte $end
$var reg 1 C dummy $end
$upscope $end
$scope module u_dut $end
$var wire 1 D clk $end
$var wire 1 / clk_125mhz $end
$var wire 1 E dns_byte_valid $end
$var wire 1 F dns_is_udp53 $end
$var wire 1 0 mb_axi_clk $end
$var wire 1 1 mb_axi_rst_n $end
$var wire 1 2 phy0_crs_dv $end
$var wire 1 ! phy0_ref_clk $end
$var wire 1 3 phy0_rx_er $end
$var wire 1 4 phy0_rxd0 $end
$var wire 1 5 phy0_rxd1 $end
$var wire 1 " phy0_tx_en $end
$var wire 1 # phy0_txd0 $end
$var wire 1 $ phy0_txd1 $end
$var wire 1 6 phy1_crs_dv $end
$var wire 1 % phy1_ref_clk $end
$var wire 1 7 phy1_rx_er $end
$var wire 1 8 phy1_rxd0 $end
$var wire 1 9 phy1_rxd1 $end
$var wire 1 & phy1_tx_en $end
$var wire 1 ' phy1_txd0 $end
$var wire 1 ( phy1_txd1 $end
$var wire 1 ; rst_btn $end
$var wire 1 G rst_n $end
$var wire 8 H rx_byte [7:0] $end
$var wire 1 I rx_byte_valid $end
$var wire 1 J rx_frame_end $end
$var wire 1 K rx_frame_start $end
$var wire 8 L sim_rx_byte [7:0] $end
$var wire 1 = sim_rx_byte_valid $end
$var wire 1 > sim_rx_frame_end $end
$var wire 1 ? sim_rx_frame_start $end
$var wire 1 M threat_detected $end
$var wire 1 ) ws2812_din $end
$var wire 1 * sram_we_n $end
$var wire 1 + sram_oe_n $end
$var wire 16 N sram_data [15:0] $end
$var wire 1 - sram_ce_n $end
$var wire 18 O sram_addr [17:0] $end
$var wire 32 P sinkhole_ip [31:0] $end
$var wire 1 Q sinkhole_active $end
$var wire 2 R rate_alert_type [1:0] $end
$var wire 1 S rate_alert $end
$var wire 1 T hdr_valid $end
$var wire 16 U hdr_src_port [15:0] $end
$var wire 32 V hdr_src_ip [31:0] $end
$var wire 8 W hdr_protocol [7:0] $end
$var wire 1 X hdr_payload_valid $end
$var wire 1 Y hdr_payload_start $end
$var wire 1 Z hdr_payload_end $end
$var wire 8 [ hdr_payload_byte [7:0] $end
$var wire 1 \ hdr_is_syn_ack $end
$var wire 1 ] hdr_is_syn $end
$var wire 1 ^ hdr_is_rst $end
$var wire 1 _ hdr_is_fin $end
$var wire 1 ` hdr_is_arp_reply $end
$var wire 1 a hdr_is_ack $end
$var wire 16 b hdr_dst_port [15:0] $end
$var wire 32 c hdr_dst_ip [31:0] $end
$var wire 1 d entropy_alert $end
$var wire 8 e dns_nxdomain_count [7:0] $end
$var wire 1 f dns_alert $end
$var wire 10 g ac_pattern_id [9:0] $end
$var wire 16 h ac_offset [15:0] $end
$var wire 1 i ac_match $end
$scope module u_ac $end
$var wire 1 D clk $end
$var wire 1 G rst_n $end
$var wire 16 j sram_data [15:0] $end
$var wire 1 Y frame_start $end
$var wire 1 Z frame_end $end
$var wire 1 X byte_valid $end
$var wire 8 k byte_in [7:0] $end
$var parameter 32 l ALPHABET_SIZE $end
$var parameter 32 m NUM_STATES $end
$var parameter 32 n PATTERN_COUNT $end
$var parameter 32 o STATE_WIDTH $end
$var reg 16 p byte_offset [15:0] $end
$var reg 10 q current_state [9:0] $end
$var reg 1 i match_found $end
$var reg 16 r match_offset [15:0] $end
$var reg 10 s match_pattern_id [9:0] $end
$var reg 18 t sram_addr [17:0] $end
$var reg 1 - sram_ce_n $end
$var reg 16 u sram_data_out [15:0] $end
$var reg 1 v sram_drive $end
$var reg 1 + sram_oe_n $end
$var reg 1 * sram_we_n $end
$upscope $end
$scope module u_alert $end
$var wire 1 D clk $end
$var wire 1 w packet_dropped $end
$var wire 1 G rst_n $end
$var wire 1 M threat_detected $end
$var wire 2 x threat_level [1:0] $end
$var parameter 32 y BREATH_STEP_CYCLES $end
$var parameter 32 z CLK_MHZ $end
$var parameter 2 { MALICIOUS $end
$var parameter 32 | NUM_LEDS $end
$var parameter 32 } RED_FLASH_CYCLES $end
$var parameter 2 ~ SAFE $end
$var parameter 2 !" SUSPICIOUS $end
$var parameter 3 "" S_HIGH $end
$var parameter 3 #" S_IDLE $end
$var parameter 3 $" S_LOAD $end
$var parameter 3 %" S_LOW $end
$var parameter 3 &" S_RESET $end
$var parameter 64 '" T0H $end
$var parameter 64 (" T0L $end
$var parameter 64 )" T1H $end
$var parameter 64 *" T1L $end
$var parameter 64 +" TRESET $end
$var reg 5 ," bit_idx [4:0] $end
$var reg 17 -" breath_counter [16:0] $end
$var reg 1 ." breath_dir $end
$var reg 8 /" brightness [7:0] $end
$var reg 1 0" current_bit $end
$var reg 24 1" led_color [23:0] $end
$var reg 5 2" led_idx [4:0] $end
$var reg 8 3" pulse_cnt [7:0] $end
$var reg 1 4" red_flash_active $end
$var reg 24 5" red_flash_timer [23:0] $end
$var reg 13 6" reset_cnt [12:0] $end
$var reg 24 7" shift_reg [23:0] $end
$var reg 3 8" state [2:0] $end
$var reg 1 ) ws2812_din $end
$upscope $end
$scope module u_dns $end
$var wire 1 i ac_match $end
$var wire 1 E byte_valid $end
$var wire 1 D clk $end
$var wire 1 G rst_n $end
$var wire 1 Y frame_start $end
$var wire 1 Z frame_end $end
$var wire 8 9" byte_in [7:0] $end
$var parameter 8 :" NXDOMAIN_THRESH $end
$var parameter 32 ;" SINKHOLE_ADDR $end
$var parameter 4 <" S_ANSWER $end
$var parameter 4 =" S_DONE $end
$var parameter 4 >" S_HDR $end
$var parameter 4 ?" S_IDLE $end
$var parameter 4 @" S_LABEL_DATA $end
$var parameter 4 A" S_QCLASS_HI $end
$var parameter 4 B" S_QCLASS_LO $end
$var parameter 4 C" S_QNAME $end
$var parameter 4 D" S_QTYPE_HI $end
$var parameter 4 E" S_QTYPE_LO $end
$var parameter 4 F" S_RDATA $end
$var reg 16 G" ancount [15:0] $end
$var reg 4 H" byte_idx [3:0] $end
$var reg 1 f dns_alert $end
$var reg 16 I" flags [15:0] $end
$var reg 8 J" hdr_count [7:0] $end
$var reg 1 K" is_response $end
$var reg 8 L" label_len [7:0] $end
$var reg 8 M" label_remaining [7:0] $end
$var reg 8 N" nxdomain_count [7:0] $end
$var reg 16 O" nxdomain_window_timer [15:0] $end
$var reg 16 P" qdcount [15:0] $end
$var reg 4 Q" rcode [3:0] $end
$var reg 8 R" rdata_byte_idx [7:0] $end
$var reg 32 S" rdata_ip [31:0] $end
$var reg 1 Q sinkhole_active $end
$var reg 32 T" sinkhole_ip [31:0] $end
$var reg 4 U" state [3:0] $end
$var reg 16 V" tx_id [15:0] $end
$scope function is_rfc1918 $end
$var reg 32 W" ip [31:0] $end
$upscope $end
$upscope $end
$scope module u_entropy $end
$var wire 1 D clk $end
$var wire 1 G rst_n $end
$var wire 1 Y frame_start $end
$var wire 1 Z frame_end $end
$var wire 1 X byte_valid $end
$var wire 8 X" byte_in [7:0] $end
$var parameter 2 Y" ACC_EVAL $end
$var parameter 2 Z" ACC_IDLE $end
$var parameter 2 [" ACC_SUM $end
$var parameter 16 \" ALERT_THRESH $end
$var parameter 32 ]" WINDOW_SIZE $end
$var reg 2 ^" acc_state [1:0] $end
$var reg 9 _" actual_count [8:0] $end
$var reg 8 `" bin_idx [7:0] $end
$var reg 8 a" byte_count [7:0] $end
$var reg 1 d entropy_alert $end
$var reg 24 b" entropy_sum [23:0] $end
$var reg 16 c" entropy_value [15:0] $end
$var reg 8 d" freq_sample [7:0] $end
$var reg 1 e" window_done $end
$var integer 32 f" i [31:0] $end
$upscope $end
$scope module u_pkt_parser $end
$var wire 8 g" byte_in [7:0] $end
$var wire 1 I byte_valid $end
$var wire 1 D clk $end
$var wire 1 J frame_end $end
$var wire 1 K frame_start $end
$var wire 1 G rst_n $end
$var parameter 4 h" S_ARP_HDR $end
$var parameter 4 i" S_ETH_HDR $end
$var parameter 4 j" S_IDLE $end
$var parameter 4 k" S_IP_HDR $end
$var parameter 4 l" S_PAYLOAD $end
$var parameter 4 m" S_SKIP $end
$var parameter 4 n" S_TCP_HDR $end
$var parameter 4 o" S_UDP_HDR $end
$var reg 8 p" byte_count [7:0] $end
$var reg 32 q" dst_ip [31:0] $end
$var reg 16 r" dst_port [15:0] $end
$var reg 16 s" ethertype [15:0] $end
$var reg 1 T hdr_valid $end
$var reg 8 t" ihl_bytes [7:0] $end
$var reg 8 u" ip_hdr_remaining [7:0] $end
$var reg 1 a is_ack $end
$var reg 1 ` is_arp_reply $end
$var reg 1 _ is_fin $end
$var reg 1 ^ is_rst $end
$var reg 1 ] is_syn $end
$var reg 1 \ is_syn_ack $end
$var reg 8 v" payload_byte [7:0] $end
$var reg 1 Z payload_end $end
$var reg 1 Y payload_start $end
$var reg 1 X payload_valid $end
$var reg 8 w" protocol [7:0] $end
$var reg 32 x" src_ip [31:0] $end
$var reg 16 y" src_port [15:0] $end
$var reg 4 z" state [3:0] $end
$var reg 8 {" tcp_data_offset_bytes [7:0] $end
$var reg 8 |" tcp_hdr_remaining [7:0] $end
$upscope $end
$scope module u_rate $end
$var wire 1 D clk $end
$var wire 32 }" dst_ip [31:0] $end
$var wire 16 ~" dst_port [15:0] $end
$var wire 1 ` is_arp_reply $end
$var wire 1 ] is_syn $end
$var wire 1 \ is_syn_ack $end
$var wire 1 T pkt_valid $end
$var wire 8 !# protocol [7:0] $end
$var wire 1 G rst_n $end
$var wire 32 "# src_ip [31:0] $end
$var wire 16 ## src_port [15:0] $end
$var parameter 8 $# ARP_THRESH $end
$var parameter 16 %# BEACON_THRESH $end
$var parameter 16 &# FLOW_AGE_MAX $end
$var parameter 32 '# FLOW_SLOTS $end
$var parameter 32 (# SLOT_BITS $end
$var parameter 8 )# SYN_THRESH $end
$var reg 2 *# alert_type [1:0] $end
$var reg 8 +# arp_reply_count [7:0] $end
$var reg 20 ,# arp_window_timer [19:0] $end
$var reg 1 -# free_found $end
$var reg 6 .# free_slot [5:0] $end
$var reg 6 /# hash_idx [5:0] $end
$var reg 6 0# matched_slot [5:0] $end
$var reg 1 S rate_alert $end
$var reg 1 1# slot_hit $end
$var integer 32 2# j [31:0] $end
$var integer 32 3# s [31:0] $end
$scope function flow_hash $end
$var reg 32 4# dip [31:0] $end
$var reg 16 5# dp [15:0] $end
$var reg 32 6# h [31:0] $end
$var reg 32 7# sip [31:0] $end
$var reg 16 8# sp [15:0] $end
$upscope $end
$upscope $end
$upscope $end
$scope task end_frame $end
$upscope $end
$scope task send_byte $end
$var reg 8 9# b [7:0] $end
$upscope $end
$scope task send_udp_payload_string $end
$var reg 16 :# dst_port [15:0] $end
$var reg 512 ;# str [511:0] $end
$var integer 32 <# kk [31:0] $end
$var integer 32 =# str_len [31:0] $end
$var integer 32 ># udp_len [31:0] $end
$upscope $end
$scope task start_frame $end
$upscope $end
$upscope $end
$enddefinitions $end
$comment Show the parameter values. $end
$dumpall
b11110 )#
b110 (#
b1000000 '#
b1111111111111111 &#
b110010 %#
b10100 $#
b100 o"
b11 n"
b111 m"
b110 l"
b10 k"
b0 j"
b1 i"
b101 h"
b100000000 ]"
b1110000000 \"
b1 ["
b0 Z"
b10 Y"
b1001 F"
b101 E"
b100 D"
b10 C"
b111 B"
b110 A"
b11 @"
b0 ?"
b1 >"
b1010 ="
b1000 <"
b11000000101010001111111000000001 ;"
b1010 :"
b1110101001100 +"
b111000 *"
b1100100 )"
b1101010 ("
b110010 '"
b11 &"
b10 %"
b100 $"
b0 #"
b1 ""
b1 !"
b0 ~
b100110001001011010000000 }
b1000 |
b10 {
b1111101 z
b11101111010110101 y
b1010 o
b1000000000 n
b10000000000 m
b100000000 l
$end
#0
$dumpvars
bx >#
bx =#
bx <#
bx ;#
bx :#
bx 9#
b0 8#
b0 7#
b0 6#
b0 5#
b0 4#
b1000000 3#
b1000000 2#
01#
b0 0#
b0 /#
b0 .#
1-#
b0 ,#
b0 +#
b0 *#
b0 ##
b0 "#
b0 !#
b0 ~"
b0 }"
b0 |"
b0 {"
b0 z"
b0 y"
b0 x"
b0 w"
b0 v"
b0 u"
b0 t"
b0 s"
b0 r"
b0 q"
b0 p"
b0 g"
b100000000 f"
0e"
b0 d"
b0 c"
b0 b"
b0 a"
b0 `"
b0 _"
b0 ^"
b0 X"
bx W"
b0 V"
b0 U"
b11000000101010001111111000000001 T"
b0 S"
b0 R"
b0 Q"
b0 P"
b0 O"
b0 N"
b0 M"
b0 L"
0K"
b0 J"
b0 I"
b0 H"
b0 G"
b0 9"
b100 8"
b0 7"
b0 6"
b0 5"
04"
b0 3"
b0 2"
b10100000000000000000000 1"
00"
b0 /"
0."
b0 -"
b0 ,"
b0 x
zw
0v
bx u
bx t
b0 s
b0 r
b0 q
b0 p
b0 k
bz j
0i
b0 h
b0 g
0f
b0 e
0d
b0 c
b0 b
0a
0`
0_
0^
0]
0\
b0 [
0Z
0Y
0X
b0 W
b0 V
b0 U
0T
0S
b0 R
0Q
b11000000101010001111111000000001 P
bx O
bz N
0M
b0 L
0K
0J
0I
b0 H
0G
0F
0E
0D
xC
bx B
b100000000 A
b100000000 @
0?
0>
0=
b0 <
1;
b11011110101011011011111011101111 :
09
08
07
06
05
04
03
02
01
00
0/
bx .
1-
bz ,
1+
1*
0)
z(
z'
z&
0%
z$
z#
z"
0!
$end
#4000
b1000000 2#
b100000000 f"
1D
1/
#8000
0D
0/
#12000
b100000000 f"
b1000000 2#
1D
1/
#16000
0D
0/
#20000
b1000000 2#
b100000000 f"
1D
1/
#24000
0D
0/
#28000
1G
b100000000 f"
b1000000 2#
0;
1D
1/
#32000
0D
0/
#36000
1)
b1 8"
b10100000000000000000000 7"
b1 -"
b1 ,#
b1 O"
b1000000 2#
1D
1/
#40000
0D
0/
#44000
b10 O"
b10 ,#
b10 -"
b1 3"
b1000000 2#
1D
1/
#48000
0D
0/
#52000
b10 3"
b11 -"
b11 ,#
b11 O"
1K
1?
b1000000 2#
1D
1/
#56000
0D
0/
#60000
b1 z"
b100 O"
b100 ,#
b100 -"
b11 3"
0K
0?
b1000000 2#
b11111111 9#
b101011 >#
b110101 :#
b100011 =#
b11001110110100101110100011010000111010101100010001011100110001101101111011011010010000001101100011011110110111101101011011101010111000000100000011100100110010101110001011101010110010101110011011101000010000001110000011000010110010001100100011010010110111001100111 ;#
1D
1/
#64000
0D
0/
#68000
b100 3"
b101 -"
b101 ,#
b101 O"
1I
1=
b11111111 H
b11111111 g"
b11111111 <
b11111111 L
b1000000 2#
1D
1/
#72000
0D
0/
#76000
b1 p"
b110 O"
b110 ,#
b110 -"
b101 3"
0I
0=
b1000000 2#
1D
1/
#80000
0D
0/
#84000
b110 3"
b111 -"
b111 ,#
b111 O"
1I
1=
b1000000 2#
1D
1/
#88000
0D
0/
#92000
b10 p"
b1000 O"
b1000 ,#
b1000 -"
b111 3"
0I
0=
b1000000 2#
1D
1/
#96000
0D
0/
#100000
b1000 3"
b1001 -"
b1001 ,#
b1001 O"
1I
1=
b1000000 2#
1D
1/
#104000
0D
0/
#108000
b11 p"
b1010 O"
b1010 ,#
b1010 -"
b1001 3"
0I
0=
b1000000 2#
1D
1/
#112000
0D
0/
#116000
b1010 3"
b1011 -"
b1011 ,#
b1011 O"
1I
1=
b1000000 2#
1D
1/
#120000
0D
0/
#124000
b100 p"
b1100 O"
b1100 ,#
b1100 -"
b1011 3"
0I
0=
b1000000 2#
1D
1/
#128000
0D
0/
#132000
b1100 3"
b1101 -"
b1101 ,#
b1101 O"
1I
1=
b1000000 2#
1D
1/
#136000
0D
0/
#140000
b101 p"
b1110 O"
b1110 ,#
b1110 -"
b1101 3"
0I
0=
b1000000 2#
1D
1/
#144000
0D
0/
#148000
b1110 3"
b1111 -"
b1111 ,#
b1111 O"
1I
1=
b1000000 2#
1D
1/
#152000
0D
0/
#156000
b110 p"
b10000 O"
b10000 ,#
b10000 -"
b1111 3"
0I
0=
b1000000 2#
b10101010 9#
1D
1/
#160000
0D
0/
#164000
b10000 3"
b10001 -"
b10001 ,#
b10001 O"
1I
1=
b10101010 H
b10101010 g"
b10101010 <
b10101010 L
b1000000 2#
1D
1/
#168000
0D
0/
#172000
b111 p"
b10010 O"
b10010 ,#
b10010 -"
b10001 3"
0I
0=
b1000000 2#
b10111011 9#
1D
1/
#176000
0D
0/
#180000
b10010 3"
b10011 -"
b10011 ,#
b10011 O"
1I
1=
b10111011 H
b10111011 g"
b10111011 <
b10111011 L
b1000000 2#
1D
1/
#184000
0D
0/
#188000
b1000 p"
b10100 O"
b10100 ,#
b10100 -"
b10011 3"
0I
0=
b1000000 2#
b11001100 9#
1D
1/
#192000
0D
0/
#196000
b10100 3"
b10101 -"
b10101 ,#
b10101 O"
1I
1=
b11001100 H
b11001100 g"
b11001100 <
b11001100 L
b1000000 2#
1D
1/
#200000
0D
0/
#204000
b1001 p"
b10110 O"
b10110 ,#
b10110 -"
b10101 3"
0I
0=
b1000000 2#
b11011101 9#
1D
1/
#208000
0D
0/
#212000
b10110 3"
b10111 -"
b10111 ,#
b10111 O"
1I
1=
b11011101 H
b11011101 g"
b11011101 <
b11011101 L
b1000000 2#
1D
1/
#216000
0D
0/
#220000
b1010 p"
b11000 O"
b11000 ,#
b11000 -"
b10111 3"
0I
0=
b1000000 2#
b11101110 9#
1D
1/
#224000
0D
0/
#228000
b11000 3"
b11001 -"
b11001 ,#
b11001 O"
1I
1=
b11101110 H
b11101110 g"
b11101110 <
b11101110 L
b1000000 2#
1D
1/
#232000
0D
0/
#236000
b1011 p"
b11010 O"
b11010 ,#
b11010 -"
b11001 3"
0I
0=
b1000000 2#
b11111111 9#
1D
1/
#240000
0D
0/
#244000
b11010 3"
b11011 -"
b11011 ,#
b11011 O"
1I
1=
b11111111 H
b11111111 g"
b11111111 <
b11111111 L
b1000000 2#
1D
1/
#248000
0D
0/
#252000
b1100 p"
b11100 O"
b11100 ,#
b11100 -"
b11011 3"
0I
0=
b1000000 2#
b1000 9#
1D
1/
#256000
0D
0/
#260000
b11100 3"
b11101 -"
b11101 ,#
b11101 O"
1I
1=
b1000 H
b1000 g"
b1000 <
b1000 L
b1000000 2#
1D
1/
#264000
0D
0/
#268000
b1101 p"
b100000000000 s"
b11110 O"
b11110 ,#
b11110 -"
b11101 3"
0I
0=
b1000000 2#
b0 9#
1D
1/
#272000
0D
0/
#276000
b11110 3"
b11111 -"
b11111 ,#
b11111 O"
1I
1=
b0 H
b0 g"
b0 <
b0 L
b1000000 2#
1D
1/
#280000
0D
0/
#284000
b10 z"
b0 p"
b100000 O"
b100000 ,#
b100000 -"
b11111 3"
0I
0=
b1000000 2#
b1000101 9#
1D
1/
#288000
0D
0/
#292000
b100000 3"
b100001 -"
b100001 ,#
b100001 O"
1I
1=
b1000101 H
b1000101 g"
b1000101 <
b1000101 L
b1000000 2#
1D
1/
#296000
0D
0/
#300000
b1 p"
b10011 u"
b10100 t"
b100010 O"
b100010 ,#
b100010 -"
b100001 3"
0I
0=
b1000000 2#
b0 9#
1D
1/
#304000
0D
0/
#308000
b100010 3"
b100011 -"
b100011 ,#
b100011 O"
1I
1=
b0 H
b0 g"
b0 <
b0 L
b1000000 2#
1D
1/
#312000
0D
0/
#316000
b10 p"
b100100 O"
b100100 ,#
b100100 -"
b100011 3"
0I
0=
b1000000 2#
1D
1/
#320000
0D
0/
#324000
b100100 3"
b100101 -"
b100101 ,#
b100101 O"
1I
1=
b1000000 2#
1D
1/
#328000
0D
0/
#332000
b11 p"
b100110 O"
b100110 ,#
b100110 -"
b100101 3"
0I
0=
b1000000 2#
b111111 9#
1D
1/
#336000
0D
0/
#340000
b100110 3"
b100111 -"
b100111 ,#
b100111 O"
1I
1=
b111111 H
b111111 g"
b111111 <
b111111 L
b1000000 2#
1D
1/
#344000
0D
0/
#348000
b100 p"
b101000 O"
b101000 ,#
b101000 -"
b100111 3"
0I
0=
b1000000 2#
b0 9#
1D
1/
#352000
0D
0/
#356000
b101000 3"
b101001 -"
b101001 ,#
b101001 O"
1I
1=
b0 H
b0 g"
b0 <
b0 L
b1000000 2#
1D
1/
#360000
0D
0/
#364000
b101 p"
b101010 O"
b101010 ,#
b101010 -"
b101001 3"
0I
0=
b1000000 2#
b1 9#
1D
1/
#368000
0D
0/
#372000
b101010 3"
b101011 -"
b101011 ,#
b101011 O"
1I
1=
b1 H
b1 g"
b1 <
b1 L
b1000000 2#
1D
1/
#376000
0D
0/
#380000
b110 p"
b101100 O"
b101100 ,#
b101100 -"
b101011 3"
0I
0=
b1000000 2#
b0 9#
1D
1/
#384000
0D
0/
#388000
b101100 3"
b101101 -"
b101101 ,#
b101101 O"
1I
1=
b0 H
b0 g"
b0 <
b0 L
b1000000 2#
1D
1/
#392000
0D
0/
#396000
b111 p"
b101110 O"
b101110 ,#
b101110 -"
b101101 3"
0I
0=
b1000000 2#
1D
1/
#400000
0D
0/
#404000
b101110 3"
b101111 -"
b101111 ,#
b101111 O"
1I
1=
b1000000 2#
1D
1/
#408000
0D
0/
#412000
b1000 p"
b110000 O"
b110000 ,#
b110000 -"
b101111 3"
0I
0=
b1000000 2#
b1000000 9#
1D
1/
#416000
0D
0/
#420000
b110000 3"
b110001 -"
b110001 ,#
b110001 O"
1I
1=
b1000000 H
b1000000 g"
b1000000 <
b1000000 L
b1000000 2#
1D
1/
#424000
0D
0/
#428000
b1001 p"
b110010 O"
b110010 ,#
b110010 -"
b110001 3"
0I
0=
b1000000 2#
b10001 9#
1D
1/
#432000
0D
0/
#436000
b10 8"
0)
b0 3"
b110011 -"
b110011 ,#
b110011 O"
1I
1=
b10001 H
b10001 g"
b10001 <
b10001 L
b1000000 2#
1D
1/
#440000
0D
0/
#444000
b1010 p"
b10001 W
b10001 w"
b10001 !#
b110100 O"
b110100 ,#
b110100 -"
b1 3"
0I
0=
b1000000 2#
b0 9#
1D
1/
#448000
0D
0/
#452000
b10 3"
b110101 -"
b110101 ,#
b110101 O"
1I
1=
b0 H
b0 g"
b0 <
b0 L
b1000000 2#
1D
1/
#456000
0D
0/
#460000
b1011 p"
b110110 O"
b110110 ,#
b110110 -"
b11 3"
0I
0=
b1000000 2#
1D
1/
#464000
0D
0/
#468000
b100 3"
b110111 -"
b110111 ,#
b110111 O"
1I
1=
b1000000 2#
1D
1/
#472000
0D
0/
#476000
b1100 p"
b111000 O"
b111000 ,#
b111000 -"
b101 3"
0I
0=
b1000000 2#
b11000000 9#
1D
1/
#480000
0D
0/
#484000
b110 3"
b111001 -"
b111001 ,#
b111001 O"
1I
1=
b11000000 H
b11000000 g"
b11000000 <
b11000000 L
b1000000 2#
1D
1/
#488000
0D
0/
#492000
b1000000 3#
1-#
b11000000000000000000000000000000 6#
b11000000000000000000000000000000 7#
b1101 p"
b11000000000000000000000000000000 V
b11000000000000000000000000000000 x"
b11000000000000000000000000000000 "#
b111010 O"
b111010 ,#
b111010 -"
b111 3"
0I
0=
b1000000 2#
b10101000 9#
1D
1/
#496000
0D
0/
#500000
b1000 3"
b111011 -"
b111011 ,#
b111011 O"
1I
1=
b10101000 H
b10101000 g"
b10101000 <
b10101000 L
b1000000 2#
1D
1/
#504000
0D
0/
#508000
b1000000 3#
1-#
b101010 /#
b11000000101010000000000000000000 6#
b11000000101010000000000000000000 7#
b1110 p"
b11000000101010000000000000000000 V
b11000000101010000000000000000000 x"
b11000000101010000000000000000000 "#
b111100 O"
b111100 ,#
b111100 -"
b1001 3"
0I
0=
b1000000 2#
b1 9#
1D
1/
#512000
0D
0/
#516000
b1010 3"
b111101 -"
b111101 ,#
b111101 O"
1I
1=
b1 H
b1 g"
b1 <
b1 L
b1000000 2#
1D
1/
#520000
0D
0/
#524000
b1000000 3#
1-#
b101110 /#
b11000000101010000000000100000000 6#
b11000000101010000000000100000000 7#
b1111 p"
b11000000101010000000000100000000 V
b11000000101010000000000100000000 x"
b11000000101010000000000100000000 "#
b111110 O"
b111110 ,#
b111110 -"
b1011 3"
0I
0=
b1000000 2#
b1010 9#
1D
1/
#528000
0D
0/
#532000
b1100 3"
b111111 -"
b111111 ,#
b111111 O"
1I
1=
b1010 H
b1010 g"
b1010 <
b1010 L
b1000000 2#
1D
1/
#536000
0D
0/
#540000
b1000000 3#
1-#
b100100 /#
b11000000101010000000000100001010 6#
b11000000101010000000000100001010 7#
b10000 p"
b11000000101010000000000100001010 V
b11000000101010000000000100001010 x"
b11000000101010000000000100001010 "#
b1000000 O"
b1000000 ,#
b1000000 -"
b1101 3"
0I
0=
b1000000 2#
b1000 9#
1D
1/
#544000
0D
0/
#548000
b1110 3"
b1000001 -"
b1000001 ,#
b1000001 O"
1I
1=
b1000 H
b1000 g"
b1000 <
b1000 L
b1000000 2#
1D
1/
#552000
0D
0/
#556000
b1000000 3#
1-#
b11001000101010000000000100001010 6#
b1000000000000000000000000000 4#
b10001 p"
b1000000000000000000000000000 c
b1000000000000000000000000000 q"
b1000000000000000000000000000 }"
b1000010 O"
b1000010 ,#
b1000010 -"
b1111 3"
0I
0=
b1000000 2#
1D
1/
#560000
0D
0/
#564000
b10000 3"
b1000011 -"
b1000011 ,#
b1000011 O"
1I
1=
b1000000 2#
1D
1/
#568000
0D
0/
#572000
b1000000 3#
1-#
b100110 /#
b11001000101000000000000100001010 6#
b1000000010000000000000000000 4#
b10010 p"
b1000000010000000000000000000 c
b1000000010000000000000000000 q"
b1000000010000000000000000000 }"
b1000100 O"
b1000100 ,#
b1000100 -"
b10001 3"
0I
0=
b1000000 2#
1D
1/
#576000
0D
0/
#580000
b10010 3"
b1000101 -"
b1000101 ,#
b1000101 O"
1I
1=
b1000000 2#
1D
1/
#584000
0D
0/
#588000
b1000000 3#
1-#
b110 /#
b11001000101000000000100100001010 6#
b1000000010000000100000000000 4#
b10011 p"
b1000000010000000100000000000 c
b1000000010000000100000000000 q"
b1000000010000000100000000000 }"
b1000110 O"
b1000110 ,#
b1000110 -"
b10011 3"
0I
0=
b1000000 2#
1D
1/
#592000
0D
0/
#596000
b10100 3"
b1000111 -"
b1000111 ,#
b1000111 O"
1I
1=
b1000000 2#
1D
1/
#600000
0D
0/
#604000
b1000000 3#
1-#
b1110 /#
b11001000101000000000100100000010 6#
b1000000010000000100000001000 4#
b100 z"
b0 p"
b1000000010000000100000001000 c
b1000000010000000100000001000 q"
b1000000010000000100000001000 }"
b1001000 O"
b1001000 ,#
b1001000 -"
b10101 3"
0I
0=
b1000000 2#
b10011 9#
1D
1/
#608000
0D
0/
#612000
b10110 3"
b1001001 -"
b1001001 ,#
b1001001 O"
1I
1=
b10011 H
b10011 g"
b10011 <
b10011 L
b1000000 2#
1D
1/
#616000
0D
0/
#620000
b1000000 3#
1-#
b1101 /#
b11011011101000000000100100000010 6#
b1001100000000 8#
b1 p"
b1001100000000 U
b1001100000000 y"
b1001100000000 ##
b1001010 O"
b1001010 ,#
b1001010 -"
b10111 3"
0I
0=
b1000000 2#
b10001000 9#
1D
1/
#624000
0D
0/
#628000
b11000 3"
b1001011 -"
b1001011 ,#
b1001011 O"
1I
1=
b10001000 H
b10001000 g"
b10001000 <
b10001000 L
b1000000 2#
1D
1/
#632000
0D
0/
#636000
b1000000 3#
1-#
b101111 /#
b11011011001010000000100100000010 6#
b1001110001000 8#
b10 p"
b1001110001000 U
b1001110001000 y"
b1001110001000 ##
b1001100 O"
b1001100 ,#
b1001100 -"
b11001 3"
0I
0=
b1000000 2#
b0 9#
1D
1/
#640000
0D
0/
#644000
b11010 3"
b1001101 -"
b1001101 ,#
b1001101 O"
1I
1=
b0 H
b0 g"
b0 <
b0 L
b1000000 2#
1D
1/
#648000
0D
0/
#652000
b11 p"
b1001110 O"
b1001110 ,#
b1001110 -"
b11011 3"
0I
0=
b1000000 2#
b110101 9#
1D
1/
#656000
0D
0/
#660000
b11100 3"
b1001111 -"
b1001111 ,#
b1001111 O"
1I
1=
b110101 H
b110101 g"
b110101 <
b110101 L
b1000000 2#
1D
1/
#664000
0D
0/
#668000
1F
b1000000 3#
1-#
b11010 /#
b11011011001010000000100100110111 6#
b110101 5#
b100 p"
b110101 b
b110101 r"
b110101 ~"
b1010000 O"
b1010000 ,#
b1010000 -"
b11101 3"
0I
0=
b1000000 2#
b0 9#
1D
1/
#672000
0D
0/
#676000
b11110 3"
b1010001 -"
b1010001 ,#
b1010001 O"
1I
1=
b0 H
b0 g"
b0 <
b0 L
b1000000 2#
1D
1/
#680000
0D
0/
